
Factors Affecting IBU levels
----------------------------
    - alpha acids are main bittering agent in hops -- from the resin

    - majority of alpha acids lost in mash
        --> limited solubility
        - Utilization: what fraction of alpha acids are converted to iso-alpha
          acids
            - between 0.0 and 0.4




